codigos;nombre de estudiante;genero
115100;nombre-115100;true
115101;nombre-115101;false
115102;nombre-115102;false
115103;nombre-115103;true
115104;nombre-115104;false
115105;nombre-115105;false
115106;nombre-115106;true
115107;nombre-115107;false
115108;nombre-115108;true
115109;nombre-115109;false
115110;nombre-115110;true
115111;nombre-115111;false
115112;nombre-115112;true
115113;nombre-115113;false
115114;nombre-115114;true
115115;nombre-115115;true
115116;nombre-115116;false
115117;nombre-115117;false
115118;nombre-115118;false
115119;nombre-115119;false
115120;nombre-115120;true
115121;nombre-115121;true
115122;nombre-115122;true
115123;nombre-115123;true
115124;nombre-115124;true
115125;nombre-115125;true
115126;nombre-115126;false
115127;nombre-115127;true